C:/Users/e.baret/Documents/STM32CubeIDE/workspace/fw-bandwidth-tty/Drivers/STM32MP1xx_HAL_Driver/Src/stm32mp1xx_hal_tim_ex.c:142:19:HAL_TIMEx_HallSensor_Init	48	static
C:/Users/e.baret/Documents/STM32CubeIDE/workspace/fw-bandwidth-tty/Drivers/STM32MP1xx_HAL_Driver/Src/stm32mp1xx_hal_tim_ex.c:234:19:HAL_TIMEx_HallSensor_DeInit	16	static
C:/Users/e.baret/Documents/STM32CubeIDE/workspace/fw-bandwidth-tty/Drivers/STM32MP1xx_HAL_Driver/Src/stm32mp1xx_hal_tim_ex.c:270:13:HAL_TIMEx_HallSensor_MspInit	16	static
C:/Users/e.baret/Documents/STM32CubeIDE/workspace/fw-bandwidth-tty/Drivers/STM32MP1xx_HAL_Driver/Src/stm32mp1xx_hal_tim_ex.c:285:13:HAL_TIMEx_HallSensor_MspDeInit	16	static
C:/Users/e.baret/Documents/STM32CubeIDE/workspace/fw-bandwidth-tty/Drivers/STM32MP1xx_HAL_Driver/Src/stm32mp1xx_hal_tim_ex.c:300:19:HAL_TIMEx_HallSensor_Start	24	static
C:/Users/e.baret/Documents/STM32CubeIDE/workspace/fw-bandwidth-tty/Drivers/STM32MP1xx_HAL_Driver/Src/stm32mp1xx_hal_tim_ex.c:327:19:HAL_TIMEx_HallSensor_Stop	16	static
C:/Users/e.baret/Documents/STM32CubeIDE/workspace/fw-bandwidth-tty/Drivers/STM32MP1xx_HAL_Driver/Src/stm32mp1xx_hal_tim_ex.c:348:19:HAL_TIMEx_HallSensor_Start_IT	24	static
C:/Users/e.baret/Documents/STM32CubeIDE/workspace/fw-bandwidth-tty/Drivers/STM32MP1xx_HAL_Driver/Src/stm32mp1xx_hal_tim_ex.c:378:19:HAL_TIMEx_HallSensor_Stop_IT	16	static
C:/Users/e.baret/Documents/STM32CubeIDE/workspace/fw-bandwidth-tty/Drivers/STM32MP1xx_HAL_Driver/Src/stm32mp1xx_hal_tim_ex.c:404:19:HAL_TIMEx_HallSensor_Start_DMA	32	static
C:/Users/e.baret/Documents/STM32CubeIDE/workspace/fw-bandwidth-tty/Drivers/STM32MP1xx_HAL_Driver/Src/stm32mp1xx_hal_tim_ex.c:464:19:HAL_TIMEx_HallSensor_Stop_DMA	16	static
C:/Users/e.baret/Documents/STM32CubeIDE/workspace/fw-bandwidth-tty/Drivers/STM32MP1xx_HAL_Driver/Src/stm32mp1xx_hal_tim_ex.c:520:19:HAL_TIMEx_OCN_Start	24	static
C:/Users/e.baret/Documents/STM32CubeIDE/workspace/fw-bandwidth-tty/Drivers/STM32MP1xx_HAL_Driver/Src/stm32mp1xx_hal_tim_ex.c:555:19:HAL_TIMEx_OCN_Stop	16	static
C:/Users/e.baret/Documents/STM32CubeIDE/workspace/fw-bandwidth-tty/Drivers/STM32MP1xx_HAL_Driver/Src/stm32mp1xx_hal_tim_ex.c:584:19:HAL_TIMEx_OCN_Start_IT	24	static
C:/Users/e.baret/Documents/STM32CubeIDE/workspace/fw-bandwidth-tty/Drivers/STM32MP1xx_HAL_Driver/Src/stm32mp1xx_hal_tim_ex.c:650:19:HAL_TIMEx_OCN_Stop_IT	24	static
C:/Users/e.baret/Documents/STM32CubeIDE/workspace/fw-bandwidth-tty/Drivers/STM32MP1xx_HAL_Driver/Src/stm32mp1xx_hal_tim_ex.c:716:19:HAL_TIMEx_OCN_Start_DMA	32	static
C:/Users/e.baret/Documents/STM32CubeIDE/workspace/fw-bandwidth-tty/Drivers/STM32MP1xx_HAL_Driver/Src/stm32mp1xx_hal_tim_ex.c:834:19:HAL_TIMEx_OCN_Stop_DMA	16	static
C:/Users/e.baret/Documents/STM32CubeIDE/workspace/fw-bandwidth-tty/Drivers/STM32MP1xx_HAL_Driver/Src/stm32mp1xx_hal_tim_ex.c:929:19:HAL_TIMEx_PWMN_Start	24	static
C:/Users/e.baret/Documents/STM32CubeIDE/workspace/fw-bandwidth-tty/Drivers/STM32MP1xx_HAL_Driver/Src/stm32mp1xx_hal_tim_ex.c:963:19:HAL_TIMEx_PWMN_Stop	16	static
C:/Users/e.baret/Documents/STM32CubeIDE/workspace/fw-bandwidth-tty/Drivers/STM32MP1xx_HAL_Driver/Src/stm32mp1xx_hal_tim_ex.c:992:19:HAL_TIMEx_PWMN_Start_IT	24	static
C:/Users/e.baret/Documents/STM32CubeIDE/workspace/fw-bandwidth-tty/Drivers/STM32MP1xx_HAL_Driver/Src/stm32mp1xx_hal_tim_ex.c:1057:19:HAL_TIMEx_PWMN_Stop_IT	24	static
C:/Users/e.baret/Documents/STM32CubeIDE/workspace/fw-bandwidth-tty/Drivers/STM32MP1xx_HAL_Driver/Src/stm32mp1xx_hal_tim_ex.c:1124:19:HAL_TIMEx_PWMN_Start_DMA	32	static
C:/Users/e.baret/Documents/STM32CubeIDE/workspace/fw-bandwidth-tty/Drivers/STM32MP1xx_HAL_Driver/Src/stm32mp1xx_hal_tim_ex.c:1241:19:HAL_TIMEx_PWMN_Stop_DMA	16	static
C:/Users/e.baret/Documents/STM32CubeIDE/workspace/fw-bandwidth-tty/Drivers/STM32MP1xx_HAL_Driver/Src/stm32mp1xx_hal_tim_ex.c:1324:19:HAL_TIMEx_OnePulseN_Start	16	static
C:/Users/e.baret/Documents/STM32CubeIDE/workspace/fw-bandwidth-tty/Drivers/STM32MP1xx_HAL_Driver/Src/stm32mp1xx_hal_tim_ex.c:1349:19:HAL_TIMEx_OnePulseN_Stop	16	static
C:/Users/e.baret/Documents/STM32CubeIDE/workspace/fw-bandwidth-tty/Drivers/STM32MP1xx_HAL_Driver/Src/stm32mp1xx_hal_tim_ex.c:1378:19:HAL_TIMEx_OnePulseN_Start_IT	16	static
C:/Users/e.baret/Documents/STM32CubeIDE/workspace/fw-bandwidth-tty/Drivers/STM32MP1xx_HAL_Driver/Src/stm32mp1xx_hal_tim_ex.c:1409:19:HAL_TIMEx_OnePulseN_Stop_IT	16	static
C:/Users/e.baret/Documents/STM32CubeIDE/workspace/fw-bandwidth-tty/Drivers/STM32MP1xx_HAL_Driver/Src/stm32mp1xx_hal_tim_ex.c:1481:19:HAL_TIMEx_ConfigCommutEvent	24	static
C:/Users/e.baret/Documents/STM32CubeIDE/workspace/fw-bandwidth-tty/Drivers/STM32MP1xx_HAL_Driver/Src/stm32mp1xx_hal_tim_ex.c:1537:19:HAL_TIMEx_ConfigCommutEvent_IT	24	static
C:/Users/e.baret/Documents/STM32CubeIDE/workspace/fw-bandwidth-tty/Drivers/STM32MP1xx_HAL_Driver/Src/stm32mp1xx_hal_tim_ex.c:1594:19:HAL_TIMEx_ConfigCommutEvent_DMA	24	static
C:/Users/e.baret/Documents/STM32CubeIDE/workspace/fw-bandwidth-tty/Drivers/STM32MP1xx_HAL_Driver/Src/stm32mp1xx_hal_tim_ex.c:1643:19:HAL_TIMEx_MasterConfigSynchronization	24	static
C:/Users/e.baret/Documents/STM32CubeIDE/workspace/fw-bandwidth-tty/Drivers/STM32MP1xx_HAL_Driver/Src/stm32mp1xx_hal_tim_ex.c:1713:19:HAL_TIMEx_ConfigBreakDeadTime	24	static
C:/Users/e.baret/Documents/STM32CubeIDE/workspace/fw-bandwidth-tty/Drivers/STM32MP1xx_HAL_Driver/Src/stm32mp1xx_hal_tim_ex.c:1795:19:HAL_TIMEx_ConfigBreakInput	48	static
C:/Users/e.baret/Documents/STM32CubeIDE/workspace/fw-bandwidth-tty/Drivers/STM32MP1xx_HAL_Driver/Src/stm32mp1xx_hal_tim_ex.c:1898:19:HAL_TIMEx_RemapConfig	16	static
C:/Users/e.baret/Documents/STM32CubeIDE/workspace/fw-bandwidth-tty/Drivers/STM32MP1xx_HAL_Driver/Src/stm32mp1xx_hal_tim_ex.c:1988:20:HAL_TIMEx_TISelection	32	static
C:/Users/e.baret/Documents/STM32CubeIDE/workspace/fw-bandwidth-tty/Drivers/STM32MP1xx_HAL_Driver/Src/stm32mp1xx_hal_tim_ex.c:2027:19:HAL_TIMEx_GroupChannel5	16	static
C:/Users/e.baret/Documents/STM32CubeIDE/workspace/fw-bandwidth-tty/Drivers/STM32MP1xx_HAL_Driver/Src/stm32mp1xx_hal_tim_ex.c:2065:19:HAL_TIMEx_DisarmBreakInput	24	static
C:/Users/e.baret/Documents/STM32CubeIDE/workspace/fw-bandwidth-tty/Drivers/STM32MP1xx_HAL_Driver/Src/stm32mp1xx_hal_tim_ex.c:2118:19:HAL_TIMEx_ReArmBreakInput	24	static
C:/Users/e.baret/Documents/STM32CubeIDE/workspace/fw-bandwidth-tty/Drivers/STM32MP1xx_HAL_Driver/Src/stm32mp1xx_hal_tim_ex.c:2201:13:HAL_TIMEx_CommutCallback	16	static
C:/Users/e.baret/Documents/STM32CubeIDE/workspace/fw-bandwidth-tty/Drivers/STM32MP1xx_HAL_Driver/Src/stm32mp1xx_hal_tim_ex.c:2215:13:HAL_TIMEx_CommutHalfCpltCallback	16	static
C:/Users/e.baret/Documents/STM32CubeIDE/workspace/fw-bandwidth-tty/Drivers/STM32MP1xx_HAL_Driver/Src/stm32mp1xx_hal_tim_ex.c:2230:13:HAL_TIMEx_BreakCallback	16	static
C:/Users/e.baret/Documents/STM32CubeIDE/workspace/fw-bandwidth-tty/Drivers/STM32MP1xx_HAL_Driver/Src/stm32mp1xx_hal_tim_ex.c:2245:13:HAL_TIMEx_Break2Callback	16	static
C:/Users/e.baret/Documents/STM32CubeIDE/workspace/fw-bandwidth-tty/Drivers/STM32MP1xx_HAL_Driver/Src/stm32mp1xx_hal_tim_ex.c:2278:22:HAL_TIMEx_HallSensor_GetState	16	static
C:/Users/e.baret/Documents/STM32CubeIDE/workspace/fw-bandwidth-tty/Drivers/STM32MP1xx_HAL_Driver/Src/stm32mp1xx_hal_tim_ex.c:2301:6:TIMEx_DMACommutationCplt	24	static
C:/Users/e.baret/Documents/STM32CubeIDE/workspace/fw-bandwidth-tty/Drivers/STM32MP1xx_HAL_Driver/Src/stm32mp1xx_hal_tim_ex.c:2320:6:TIMEx_DMACommutationHalfCplt	24	static
C:/Users/e.baret/Documents/STM32CubeIDE/workspace/fw-bandwidth-tty/Drivers/STM32MP1xx_HAL_Driver/Src/stm32mp1xx_hal_tim_ex.c:2347:13:TIM_CCxNChannelCmd	32	static
