C:/Users/e.baret/Documents/STM32CubeIDE/workspace/fw-rtos/Drivers/STM32MP1xx_HAL_Driver/Src/stm32mp1xx_hal_pwr_ex.c:170:19:HAL_PWREx_EnableBkUpReg	16	static
C:/Users/e.baret/Documents/STM32CubeIDE/workspace/fw-rtos/Drivers/STM32MP1xx_HAL_Driver/Src/stm32mp1xx_hal_pwr_ex.c:199:19:HAL_PWREx_DisableBkUpReg	16	static
C:/Users/e.baret/Documents/STM32CubeIDE/workspace/fw-rtos/Drivers/STM32MP1xx_HAL_Driver/Src/stm32mp1xx_hal_pwr_ex.c:227:19:HAL_PWREx_EnableRetReg	16	static
C:/Users/e.baret/Documents/STM32CubeIDE/workspace/fw-rtos/Drivers/STM32MP1xx_HAL_Driver/Src/stm32mp1xx_hal_pwr_ex.c:256:19:HAL_PWREx_DisableRetReg	16	static
C:/Users/e.baret/Documents/STM32CubeIDE/workspace/fw-rtos/Drivers/STM32MP1xx_HAL_Driver/Src/stm32mp1xx_hal_pwr_ex.c:281:19:HAL_PWREx_Enable1V1Reg	16	static
C:/Users/e.baret/Documents/STM32CubeIDE/workspace/fw-rtos/Drivers/STM32MP1xx_HAL_Driver/Src/stm32mp1xx_hal_pwr_ex.c:308:19:HAL_PWREx_Disable1V1Reg	16	static
C:/Users/e.baret/Documents/STM32CubeIDE/workspace/fw-rtos/Drivers/STM32MP1xx_HAL_Driver/Src/stm32mp1xx_hal_pwr_ex.c:334:19:HAL_PWREx_Enable1V8Reg	16	static
C:/Users/e.baret/Documents/STM32CubeIDE/workspace/fw-rtos/Drivers/STM32MP1xx_HAL_Driver/Src/stm32mp1xx_hal_pwr_ex.c:360:19:HAL_PWREx_Disable1V8Reg	16	static
C:/Users/e.baret/Documents/STM32CubeIDE/workspace/fw-rtos/Drivers/STM32MP1xx_HAL_Driver/Src/stm32mp1xx_hal_pwr_ex.c:386:19:HAL_PWREx_EnableUSBVoltageDetector	16	static
C:/Users/e.baret/Documents/STM32CubeIDE/workspace/fw-rtos/Drivers/STM32MP1xx_HAL_Driver/Src/stm32mp1xx_hal_pwr_ex.c:411:19:HAL_PWREx_DisableUSBVoltageDetector	16	static
C:/Users/e.baret/Documents/STM32CubeIDE/workspace/fw-rtos/Drivers/STM32MP1xx_HAL_Driver/Src/stm32mp1xx_hal_pwr_ex.c:442:6:HAL_PWREx_EnableBatteryCharging	16	static
C:/Users/e.baret/Documents/STM32CubeIDE/workspace/fw-rtos/Drivers/STM32MP1xx_HAL_Driver/Src/stm32mp1xx_hal_pwr_ex.c:458:6:HAL_PWREx_DisableBatteryCharging	4	static
C:/Users/e.baret/Documents/STM32CubeIDE/workspace/fw-rtos/Drivers/STM32MP1xx_HAL_Driver/Src/stm32mp1xx_hal_pwr_ex.c:472:6:HAL_PWREx_EnableMonitoring	4	static
C:/Users/e.baret/Documents/STM32CubeIDE/workspace/fw-rtos/Drivers/STM32MP1xx_HAL_Driver/Src/stm32mp1xx_hal_pwr_ex.c:485:6:HAL_PWREx_DisableMonitoring	4	static
C:/Users/e.baret/Documents/STM32CubeIDE/workspace/fw-rtos/Drivers/STM32MP1xx_HAL_Driver/Src/stm32mp1xx_hal_pwr_ex.c:495:10:HAL_PWREx_GetTemperatureLevel	16	static
C:/Users/e.baret/Documents/STM32CubeIDE/workspace/fw-rtos/Drivers/STM32MP1xx_HAL_Driver/Src/stm32mp1xx_hal_pwr_ex.c:525:10:HAL_PWREx_GetVBATLevel	16	static
C:/Users/e.baret/Documents/STM32CubeIDE/workspace/fw-rtos/Drivers/STM32MP1xx_HAL_Driver/Src/stm32mp1xx_hal_pwr_ex.c:559:6:HAL_PWREx_ConfigAVD	16	static
C:/Users/e.baret/Documents/STM32CubeIDE/workspace/fw-rtos/Drivers/STM32MP1xx_HAL_Driver/Src/stm32mp1xx_hal_pwr_ex.c:596:6:HAL_PWREx_EnableAVD	4	static
C:/Users/e.baret/Documents/STM32CubeIDE/workspace/fw-rtos/Drivers/STM32MP1xx_HAL_Driver/Src/stm32mp1xx_hal_pwr_ex.c:606:6:HAL_PWREx_DisableAVD	4	static
C:/Users/e.baret/Documents/STM32CubeIDE/workspace/fw-rtos/Drivers/STM32MP1xx_HAL_Driver/Src/stm32mp1xx_hal_pwr_ex.c:618:6:HAL_PWREx_PVD_AVD_IRQHandler	8	static
C:/Users/e.baret/Documents/STM32CubeIDE/workspace/fw-rtos/Drivers/STM32MP1xx_HAL_Driver/Src/stm32mp1xx_hal_pwr_ex.c:642:13:HAL_PWREx_AVDCallback	4	static
C:/Users/e.baret/Documents/STM32CubeIDE/workspace/fw-rtos/Drivers/STM32MP1xx_HAL_Driver/Src/stm32mp1xx_hal_pwr_ex.c:650:6:HAL_PWREx_WAKEUP_PIN_IRQHandler	8	static
C:/Users/e.baret/Documents/STM32CubeIDE/workspace/fw-rtos/Drivers/STM32MP1xx_HAL_Driver/Src/stm32mp1xx_hal_pwr_ex.c:714:13:HAL_PWREx_WKUP1_Callback	4	static
C:/Users/e.baret/Documents/STM32CubeIDE/workspace/fw-rtos/Drivers/STM32MP1xx_HAL_Driver/Src/stm32mp1xx_hal_pwr_ex.c:725:13:HAL_PWREx_WKUP2_Callback	4	static
C:/Users/e.baret/Documents/STM32CubeIDE/workspace/fw-rtos/Drivers/STM32MP1xx_HAL_Driver/Src/stm32mp1xx_hal_pwr_ex.c:736:13:HAL_PWREx_WKUP3_Callback	4	static
C:/Users/e.baret/Documents/STM32CubeIDE/workspace/fw-rtos/Drivers/STM32MP1xx_HAL_Driver/Src/stm32mp1xx_hal_pwr_ex.c:747:13:HAL_PWREx_WKUP4_Callback	4	static
C:/Users/e.baret/Documents/STM32CubeIDE/workspace/fw-rtos/Drivers/STM32MP1xx_HAL_Driver/Src/stm32mp1xx_hal_pwr_ex.c:758:13:HAL_PWREx_WKUP5_Callback	4	static
C:/Users/e.baret/Documents/STM32CubeIDE/workspace/fw-rtos/Drivers/STM32MP1xx_HAL_Driver/Src/stm32mp1xx_hal_pwr_ex.c:769:13:HAL_PWREx_WKUP6_Callback	4	static
