C:/Users/e.baret/Documents/STM32CubeIDE/workspace/fw-rtos/Drivers/STM32MP1xx_HAL_Driver/Src/stm32mp1xx_hal_gpio.c:168:6:HAL_GPIO_Init	40	static
C:/Users/e.baret/Documents/STM32CubeIDE/workspace/fw-rtos/Drivers/STM32MP1xx_HAL_Driver/Src/stm32mp1xx_hal_gpio.c:297:6:HAL_GPIO_DeInit	40	static
C:/Users/e.baret/Documents/STM32CubeIDE/workspace/fw-rtos/Drivers/STM32MP1xx_HAL_Driver/Src/stm32mp1xx_hal_gpio.c:384:15:HAL_GPIO_ReadPin	24	static
C:/Users/e.baret/Documents/STM32CubeIDE/workspace/fw-rtos/Drivers/STM32MP1xx_HAL_Driver/Src/stm32mp1xx_hal_gpio.c:418:6:HAL_GPIO_WritePin	16	static
C:/Users/e.baret/Documents/STM32CubeIDE/workspace/fw-rtos/Drivers/STM32MP1xx_HAL_Driver/Src/stm32mp1xx_hal_gpio.c:440:6:HAL_GPIO_TogglePin	16	static
C:/Users/e.baret/Documents/STM32CubeIDE/workspace/fw-rtos/Drivers/STM32MP1xx_HAL_Driver/Src/stm32mp1xx_hal_gpio.c:466:19:HAL_GPIO_LockPin	24	static
C:/Users/e.baret/Documents/STM32CubeIDE/workspace/fw-rtos/Drivers/STM32MP1xx_HAL_Driver/Src/stm32mp1xx_hal_gpio.c:501:6:HAL_GPIO_EXTI_IRQHandler	16	static
C:/Users/e.baret/Documents/STM32CubeIDE/workspace/fw-rtos/Drivers/STM32MP1xx_HAL_Driver/Src/stm32mp1xx_hal_gpio.c:522:13:HAL_GPIO_EXTI_Rising_Callback	16	static
C:/Users/e.baret/Documents/STM32CubeIDE/workspace/fw-rtos/Drivers/STM32MP1xx_HAL_Driver/Src/stm32mp1xx_hal_gpio.c:537:13:HAL_GPIO_EXTI_Falling_Callback	16	static
