C:/Users/e.baret/Documents/STM32CubeIDE/workspace/fw-bandwidth-DDR/Drivers/STM32MP1xx_HAL_Driver/Src/stm32mp1xx_hal_exti.c:151:19:HAL_EXTI_SetConfigLine	40	static
C:/Users/e.baret/Documents/STM32CubeIDE/workspace/fw-bandwidth-DDR/Drivers/STM32MP1xx_HAL_Driver/Src/stm32mp1xx_hal_exti.c:301:19:HAL_EXTI_GetConfigLine	40	static
C:/Users/e.baret/Documents/STM32CubeIDE/workspace/fw-bandwidth-DDR/Drivers/STM32MP1xx_HAL_Driver/Src/stm32mp1xx_hal_exti.c:418:19:HAL_EXTI_ClearConfigLine	40	static
C:/Users/e.baret/Documents/STM32CubeIDE/workspace/fw-bandwidth-DDR/Drivers/STM32MP1xx_HAL_Driver/Src/stm32mp1xx_hal_exti.c:489:19:HAL_EXTI_RegisterCallback	32	static
C:/Users/e.baret/Documents/STM32CubeIDE/workspace/fw-bandwidth-DDR/Drivers/STM32MP1xx_HAL_Driver/Src/stm32mp1xx_hal_exti.c:524:19:HAL_EXTI_GetHandle	16	static
C:/Users/e.baret/Documents/STM32CubeIDE/workspace/fw-bandwidth-DDR/Drivers/STM32MP1xx_HAL_Driver/Src/stm32mp1xx_hal_exti.c:565:6:HAL_EXTI_IRQHandler	32	static
C:/Users/e.baret/Documents/STM32CubeIDE/workspace/fw-bandwidth-DDR/Drivers/STM32MP1xx_HAL_Driver/Src/stm32mp1xx_hal_exti.c:619:10:HAL_EXTI_GetPending	40	static
C:/Users/e.baret/Documents/STM32CubeIDE/workspace/fw-bandwidth-DDR/Drivers/STM32MP1xx_HAL_Driver/Src/stm32mp1xx_hal_exti.c:663:6:HAL_EXTI_ClearPending	32	static
C:/Users/e.baret/Documents/STM32CubeIDE/workspace/fw-bandwidth-DDR/Drivers/STM32MP1xx_HAL_Driver/Src/stm32mp1xx_hal_exti.c:699:6:HAL_EXTI_GenerateSWI	32	static
