C:/Users/e.baret/Documents/STM32CubeIDE/workspace/fw-bandwidth-DDR/Drivers/STM32MP1xx_HAL_Driver/Src/stm32mp1xx_hal_ipcc.c:124:19:HAL_IPCC_Init	24	static
C:/Users/e.baret/Documents/STM32CubeIDE/workspace/fw-bandwidth-DDR/Drivers/STM32MP1xx_HAL_Driver/Src/stm32mp1xx_hal_ipcc.c:173:19:HAL_IPCC_DeInit	24	static
C:/Users/e.baret/Documents/STM32CubeIDE/workspace/fw-bandwidth-DDR/Drivers/STM32MP1xx_HAL_Driver/Src/stm32mp1xx_hal_ipcc.c:217:13:HAL_IPCC_MspInit	16	static
C:/Users/e.baret/Documents/STM32CubeIDE/workspace/fw-bandwidth-DDR/Drivers/STM32MP1xx_HAL_Driver/Src/stm32mp1xx_hal_ipcc.c:232:13:HAL_IPCC_MspDeInit	16	static
C:/Users/e.baret/Documents/STM32CubeIDE/workspace/fw-bandwidth-DDR/Drivers/STM32MP1xx_HAL_Driver/Src/stm32mp1xx_hal_ipcc.c:310:19:HAL_IPCC_ActivateNotification	32	static
C:/Users/e.baret/Documents/STM32CubeIDE/workspace/fw-bandwidth-DDR/Drivers/STM32MP1xx_HAL_Driver/Src/stm32mp1xx_hal_ipcc.c:367:19:HAL_IPCC_DeActivateNotification	32	static
C:/Users/e.baret/Documents/STM32CubeIDE/workspace/fw-bandwidth-DDR/Drivers/STM32MP1xx_HAL_Driver/Src/stm32mp1xx_hal_ipcc.c:421:27:HAL_IPCC_GetChannelStatus	40	static
C:/Users/e.baret/Documents/STM32CubeIDE/workspace/fw-bandwidth-DDR/Drivers/STM32MP1xx_HAL_Driver/Src/stm32mp1xx_hal_ipcc.c:462:19:HAL_IPCC_NotifyCPU	40	static
C:/Users/e.baret/Documents/STM32CubeIDE/workspace/fw-bandwidth-DDR/Drivers/STM32MP1xx_HAL_Driver/Src/stm32mp1xx_hal_ipcc.c:509:6:HAL_IPCC_TX_IRQHandler	32	static
C:/Users/e.baret/Documents/STM32CubeIDE/workspace/fw-bandwidth-DDR/Drivers/STM32MP1xx_HAL_Driver/Src/stm32mp1xx_hal_ipcc.c:547:6:HAL_IPCC_RX_IRQHandler	40	static
C:/Users/e.baret/Documents/STM32CubeIDE/workspace/fw-bandwidth-DDR/Drivers/STM32MP1xx_HAL_Driver/Src/stm32mp1xx_hal_ipcc.c:595:13:HAL_IPCC_RxCallback	24	static
C:/Users/e.baret/Documents/STM32CubeIDE/workspace/fw-bandwidth-DDR/Drivers/STM32MP1xx_HAL_Driver/Src/stm32mp1xx_hal_ipcc.c:620:13:HAL_IPCC_TxCallback	24	static
C:/Users/e.baret/Documents/STM32CubeIDE/workspace/fw-bandwidth-DDR/Drivers/STM32MP1xx_HAL_Driver/Src/stm32mp1xx_hal_ipcc.c:656:23:HAL_IPCC_GetState	16	static
C:/Users/e.baret/Documents/STM32CubeIDE/workspace/fw-bandwidth-DDR/Drivers/STM32MP1xx_HAL_Driver/Src/stm32mp1xx_hal_ipcc.c:685:6:IPCC_MaskInterrupt	24	static
C:/Users/e.baret/Documents/STM32CubeIDE/workspace/fw-bandwidth-DDR/Drivers/STM32MP1xx_HAL_Driver/Src/stm32mp1xx_hal_ipcc.c:715:6:IPCC_UnmaskInterrupt	24	static
C:/Users/e.baret/Documents/STM32CubeIDE/workspace/fw-bandwidth-DDR/Drivers/STM32MP1xx_HAL_Driver/Src/stm32mp1xx_hal_ipcc.c:738:6:IPCC_SetDefaultCallbacks	24	static
C:/Users/e.baret/Documents/STM32CubeIDE/workspace/fw-bandwidth-DDR/Drivers/STM32MP1xx_HAL_Driver/Src/stm32mp1xx_hal_ipcc.c:753:6:IPCC_Reset_Register	16	static
