../Core/Src/main.c:99:5:main	8	static
../Core/Src/main.c:200:6:SystemClock_Config	336	static
../Core/Src/main.c:286:6:PeriphCommonClock_Config	352	static
../Core/Src/main.c:305:13:MX_IPCC_Init	8	static
../Core/Src/main.c:331:13:MX_DMA_Init	8	static
../Core/Src/main.c:369:13:MX_GPIO_Init	32	static
../Core/Src/main.c:417:6:StartTaskOpenamp	16	static
../Core/Src/main.c:454:6:StartTaskHeartBeats	16	static
../Core/Src/main.c:480:6:StartTaskDDR	16	static
../Core/Src/main.c:514:6:HAL_TIM_PeriodElapsedCallback	16	static
../Core/Src/main.c:531:6:Error_Handler	4	static,ignoring_inline_asm
