../Core/Src/user_openamp.c:21:6:VIRT_UART0_RxCpltCallback	16	static
../Core/Src/user_openamp.c:30:6:VIRT_UART1_RxCpltCallback	16	static
../Core/Src/user_openamp.c:39:6:User_VIRT_UART_Init	8	static
../Core/Src/user_openamp.c:67:6:User_VIRT_UART0_Treatment	8	static
../Core/Src/user_openamp.c:74:6:User_VIRT_UART1_Treatment	32	static
